…
``` r
pop.mun <- read_csv('data/pop_adm3.csv') #read_csv pertenece al paquete readr, de la colección tidyverse
## Parsed with column specification:
## cols(
##   .default = col_double(),
##   `Municipio de residencia` = col_character()
## )
## See spec(...) for full column specifications.
pop.mun
## # A tibble: 155 x 256
##    Código `Municipio de r… `Jefa o jefe` `Esposo (a) o c… `Hijo (a)`
##     <dbl> <chr>                    <dbl>            <dbl>      <dbl>
##  1  10901 Municipio Moca           48032            28717      67964
##  2  10902 Municipio Cayet…          2095             1118       2461
##  3  10903 Municipio Gaspa…         11270             6144      13433
##  4  10904 Municipio Jamao…          2330             1248       2646
##  5  11801 Municipio Puert…         48041            25936      56957
##  6  11802 Municipio Altam…          5875             3130       6073
##  7  11803 Municipio Guana…          2010             1097       1900
##  8  11804 Municipio Imbert          6937             3524       7487
##  9  11805 Municipio Los H…          3653             2033       3997
## 10  11806 Municipio Luper…          5170             2841       5177
## # … with 145 more rows, and 251 more variables: `Hijo (a) de
## #   crianza` <dbl>, `Padre o madre` <dbl>, `Nieto (a)` <dbl>, `Suegro
## #   (a)` <dbl>, `Abuelo (a)` <dbl>, `Hermano (a)` <dbl>, `Empleado (a)
## #   doméstico (a)` <dbl>, `Otro pariente` <dbl>, `Yerno o nuera` <dbl>,
## #   `No pariente` <dbl>, `Miembro de un hogar colectivo` <dbl>,
## #   Hombres <dbl>, Mujeres <dbl>, `0` <dbl>, `1` <dbl>, `2` <dbl>,
## #   `3` <dbl>, `4` <dbl>, `5` <dbl>, `6` <dbl>, `7` <dbl>, `8` <dbl>,
## #   `9` <dbl>, `10` <dbl>, `11` <dbl>, `12` <dbl>, `13` <dbl>, `14` <dbl>,
## #   `15` <dbl>, `16` <dbl>, `17` <dbl>, `18` <dbl>, `19` <dbl>,
…
